Reproducible documents
…
clean <- function(data) {
  data |>
    dplyr::group_by(dplyr::pick(-value)) |>
    dplyr::summarise(value = mean(value), .groups = "keep") |>
    dplyr::ungroup()
}

clean(lipidomics)

# A tibble: 432 × 6
   code   gender   age class metabolite                value
   <chr>  <chr>  <dbl> <chr> <chr>                     <dbl>
 1 ERI109 M         25 CT    CDCl3 (solvent)          166.  
 2 ERI109 M         25 CT    Cholesterol               18.6 
 3 ERI109 M         25 CT    FA -CH2CH2COO-            31.6 
 4 ERI109 M         25 CT    Lipid -CH2-              587.  
 5 ERI109 M         25 CT    Lipid CH3- 1              44.1 
 6 ERI109 M         25 CT    Lipid CH3- 2             147.  
 7 ERI109 M         25 CT    MUFA+PUFA                 50.6 
 8 ERI109 M         25 CT    PUFA                      29.0 
 9 ERI109 M         25 CT    Phosphatidycholine        41.7 
10 ERI109 M         25 CT    Phosphatidylethanolamine   6.78
# ℹ 422 more rows
…
preprocess <- function(data) {
  data |>
    dplyr::mutate(
      class = as.factor(class),
      value = scale(value) # so that it scales cholesterol to be compared to future metabolites
    )
}

preprocess(lipidomics)

# A tibble: 432 × 6
   code   gender   age class metabolite               value[,1]
   <chr>  <chr>  <dbl> <fct> <chr>                        <dbl>
 1 ERI109 M         25 CT    CDCl3 (solvent)              0.397
 2 ERI109 M         25 CT    Cholesterol                 -0.571
 3 ERI109 M         25 CT    FA -CH2CH2COO-              -0.486
 4 ERI109 M         25 CT    Lipid -CH2-                  3.17 
 5 ERI109 M         25 CT    Lipid CH3- 1                -0.404
 6 ERI109 M         25 CT    Lipid CH3- 2                 0.276
 7 ERI109 M         25 CT    MUFA+PUFA                   -0.361
 8 ERI109 M         25 CT    PUFA                        -0.503
 9 ERI109 M         25 CT    Phosphatidycholine          -0.419
10 ERI109 M         25 CT    Phosphatidylethanolamine    -0.649
# ℹ 422 more rows
…
Warning: glm.fit: fitted probabilities numerically 0 or 1 occurred

Warning: glm.fit: algorithm did not converge

Warning: glm.fit: fitted probabilities numerically 0 or 1 occurred

Warning: glm.fit: algorithm did not converge

Warning: glm.fit: fitted probabilities numerically 0 or 1 occurred
Warning: glm.fit: fitted probabilities numerically 0 or 1 occurred

# A tibble: 72 × 7
   metabolite      model              term  estimate std.error statistic p.value
   <chr>           <chr>              <chr>    <dbl>     <dbl>     <dbl>   <dbl>
 1 CDCl3 (solvent) class ~ value      (Int…   0.779     0.453    -0.552  0.581  
 2 CDCl3 (solvent) class ~ value      value   0.112     0.818    -2.68   0.00746
 3 CDCl3 (solvent) class ~ value + g… (Int…   0.855     1.57     -0.0995 0.921  
 4 CDCl3 (solvent) class ~ value + g… value   0.0870    0.865    -2.82   0.00475
 5 CDCl3 (solvent) class ~ value + g… gend…   3.18      0.943     1.23   0.220  
 6 CDCl3 (solvent) class ~ value + g… age     0.981     0.0478   -0.412  0.680  
 7 Cholesterol     class ~ value      (Int…   1.02      0.364     0.0425 0.966  
 8 Cholesterol     class ~ value      value   2.65      0.450     2.17   0.0300 
 9 Cholesterol     class ~ value + g… (Int…   1.11      1.29      0.0817 0.935  
10 Cholesterol     class ~ value + g… value   2.97      0.458     2.38   0.0175 
# ℹ 62 more rows
…
